156.450067204,-82.81867598496991,27.88696570199955,-85.14309266677351,-6420.096252851923,2079030.460058502
0,50.37236698715152,-0.930247453151327,79.67960481151802,7804.795216876072,-4377092.008533965
0,0,5.400275204242404,-12.54100390191203,-3647.898650042308,4028322.828430994
0,0,0,1.259037130256452,827.588111267125,-2128283.160757389
0,0,0,0,-90.9093007601859,711845.7695250197
0,0,0,0,3.882000604552926,-156416.6012984456
0,0,0,0,0,22595.02161367439
0,0,0,0,0,-2070.436773434789
0,0,0,0,0,109.2688285336216
0,0,0,0,0,-2.53198415779786
